{
  "age_min": [
    [
      {
        "LEMMA": {
          "IN": [
            "must",
            "be",
            "over",
            "minimum",
            "of",
            "at",
            "least",
            "candidate",
            "applicant"
          ]
        },
        "OP": "+"
      },
      {
        "LIKE_NUM": true
      },
      {
        "LEMMA": "year"
      },
      {
        "POS": "ADP",
        "OP": "*"
      },
      {
        "LEMMA": {
          "IN": [
            "age",
            "old",
            "y.o."
          ]
        },
        "OP": "+"
      }
    ],
    [
      {
        "LEMMA": {
          "IN": [
            "must",
            "be",
            "over",
            "of",
            "at",
            "least",
            "candidate",
            "minimum"
          ]
        },
        "OP": "+"
      },
      {
        "LIKE_NUM": true,
        "LENGTH": {
          ">=": 2
        }
      },
      {
        "TEXT": "+"
      },
      {
        "POS": "NOUN",
        "OP": "*"
      }
    ]
  ],
  "age_max": [
    [
      {
        "LEMMA": {
          "IN": [
            "must",
            "be"
          ]
        },
        "OP": "+"
      },
      {
        "LOWER": "under"
      },
      {
        "LIKE_NUM": true
      },
      {
        "LEMMA": "year"
      },
      {
        "POS": "ADP",
        "OP": "*"
      },
      {
        "LEMMA": {
          "IN": [
            "age",
            "old",
            "y.o."
          ]
        },
        "OP": "+"
      }
    ],
    [
      {
        "LEMMA": {
          "IN": [
            "must",
            "be"
          ]
        },
        "OP": "+"
      },
      {
        "LOWER": "under"
      },
      {
        "POS": {
          "IN": [
            "ADP",
            "DET"
          ]
        },
        "OP": "*"
      },
      {
        "LEMMA": {
          "IN": [
            "age"
          ]
        },
        "OP": "+"
      },
      {
        "POS": "ADP",
        "OP": "*"
      },
      {
        "LIKE_NUM": true
      },
      {
        "POS": {
          "IN": [
            "ADP",
            "PART"
          ]
        },
        "OP": "*"
      },
      {
        "LEMMA": {
          "IN": [
            "apply"
          ]
        }
      }
    ]
  ]
}