{
  "_industry": {
    "laser cutting service": "C2229",
    "hospital": "Q8401",
    "butcher shop": "G4121",
    "software company": "M7000",
    "employment services": "N7211",
    "(recruitment|employment) agency": "N7211",
    "employment consultant": "N7211",
    "job training and related services": "N7211",
    "^recruiter$": "N7211",
    "painting studio": "P8212",
    "fruit &/or berry growers": "A0133",
    "shopping mall": "G4279",
    "immigration & naturalization service": "S9539",
    "^cafe$": "H4511",
    "converted paper product manufacturing": "C1520",
    "financial institution": {
      "_search": {
        "trading platform": "K6411"
      }
    },
    "^aged care$": "Q8601",
    "^pub$": "H4520",
    "^bar$": "H4520",
    "beauty supply store": "G4271",
    "family planning cente": "Q8512",
    "advertising agencies": "M6940",
    "advertising, nec": "M6940",
    "catholic school": {
      "_search": {
        "primary school": "P8021"
      },
      "_title": {
        "primary school": "P8021"
      }
    },
    "diagnostic cent(er|re)": "Q8520",
    "apprenticeship cent(er|re)": "P8101",
    "commercial cleaning service": "N7311",
    "^commerical banking": "K6221",
    "coffee store": "H4511",
    "function room facility": "N7299",
    "furniture store": "G4211",
    "computer system design and related services": "M7000",
    "human resource consulting": "M6962",
    "university department": "P8102",
    "\\bhotel\\b": "H4400",
    "\\brestaurant\\b": {
      "_code": "H4511",
      "_industry": {
        "fast food restaurant": "H4512"
      }
    },
    "disability services": "Q8790",
    "day care (cent(er|re)|service)": "Q8710",
    "men's and boy's clothing": {
      "_industry": {
        "merchant wholesalers": "F3712",
        "wholesale trade": "F3712"
      }
    },
    "residential building construction": "E3010",
    "single-family housing construction": "E3011",
    "data processing, hosting, and related services information": "J5921",
    "zoological park": "R8921",
    "jeweler": "G4253",
    "accounting, tax preparation, bookkeeping, and payroll services": "M6932",
    "public administration": {
      "_code": "O7500",
      "_title": {
        "council": "O7530"
      },
      "_url": {
        "\\.[a-z]+\\.gov\\.au$": "O7520"
      }
    },
    "telecommunications contractor": "J5800",
    "machinery, equipment, and supplies merchant wholesalers": "F3400",
    "industrial machinery and equipment": "F3410",
    "auto parts store": "G3921",
    "motor vehicle and motor vehicle parts and supplies merchant wholesalers": "G3921",
    "supermarkets & grocery stores": "G4110",
    "^supermarket$": "G4110",
    "grocery stores": "G4110",
    "drug stores and proprietary stores": "G4271",
    "home builder": "E3011",
    "law firm": "M6931",
    "postal service": "I5101",
    "retail trade": "G0000",
    "real estate agency": "L6720",
    "executive, legislative, and other general government support": "O0000",
    "logistics service": "I0000",
    "inland water transportation": "I4810",
    "other amusement and recreation industries": "R9139",
    "nonmetallic mineral mining and quarrying": "B0990",
    "mining, quarrying, and oil and gas extraction": "B0000",
    "book stores and news dealers": "G4244",
    "police protection": "O7711",
    "beer, wine, and liquor stores": "G4123",
    "medical cent(er|re)": "Q8511",
    "appliance store": "G4221",
    "electronics and appliance stores": "G4221",
    "hobby, toy, and game shops": "G4243",
    "mental health service": "Q8609",
    "gas station": "G4000",
    "road construction company": "E3101",
    "health care and social assistance": "Q0000",
    "social assistance": "Q8790",
    "national security and international affairs": {
      "_title": {
        "defence": "O7600"
      }
    },
    "electrical work": "E3232",
    "electrician": "E3232",
    "miscellaneous durable goods merchant wholesalers": "F3499",
    "construction company": {
      "_industry": {
        "management consulting services": "L7823"
      }
    },
    "architectural, engineering, and related services": "M6920",
    "^architect$": "M6921",
    "landscape designer": "M6921",
    "office administrative services": "N7291",
    "ambulatory health care services": "Q8591",
    "elementary and secondary schools": "P8023",
    "eating places": "H4513",
    "^club$": "H4530",
    "marketing agency": "M6940",
    "home health care service": "Q8609",
    "drapery and upholstery stores": "G4214",
    "other financial investment activities": "K6419",
    "travel arrangement and reservation services": "N7220",
    "administrative and support services": "N0000",
    "travel agencies": "N7220",
    "nonresidential building construction": "E3020",
    "professional, scientific, and technical services": "M0000",
    "^accountant$": "M6932",
    "accounting, auditing, and bookkeeping": "M6932",
    "rental and leasing services": "L6600",
    "heavy construction equipment rental": "L6631",
    "automobile dealers": "G3911",
    "mew and used car dealers": "G3911",
    "data processing and preparation": "J5921",
    "computer systems design and related services": "M7000",
    "custom computer programming services": "M7000",
    "basic chemical manufacturing": "C1810",
    "industrial organic chemicals": "C1812",
    "chemical and allied products merchant wholesalers": "F3323",
    "laboratory equipment supplier": "F3491",
    "medical and hospital equipment": "F3491",
    "^wholesale trade$": "F0000",
    "^hairdresser$": "S9511",
    "transportation service": "I0000",
    "local and suburban transit": "I4621",
    "general freight trucking": "I4610",
    "transportation and warehousing": "I0000",
    "vocational college": "P8101",
    "steel fabricator": "C2221",
    "structural steel erection": "E3224",
    "interior designer": "M6924",
    "bathroom supply store": "G4231",
    "moving company": "I4610",
    "fuel oil dealers": "F3321",
    "nonstore retailers": "G4310",
    "management consulting services": "M6962",
    "employment agencies": "N7211",
    "clothing stores": "G4251",
    "cut and sew apparel manufacturing": "C1333",
    "women's accessory and specialty stores": "G4259",
    "men's clothing store": "G4259",
    "valves and pipe fittings, nec": "C2299",
    "other fabricated metal product manufacturing": "C2290",
    "membership sports and recreation clubs": "R9112",
    "sports clubs, managers, and promoters": "R9112",
    "swimming instructor": "P8211",
    "finance and insurance": "K0000",
    "insurance agents, brokers, and service": "K6420",
    "insurance Carriers and related activities": "K6300",
    "legal services": "M6931",
    "traveler accommodation": "N7220",
    "hotels and motels": "H4400",
    "accommodation and food services": "H0000",
    "automobile parking": "S9533",
    "personal and laundry services": "S9500",
    "other personal services": "S9530",
    "nursing and residential care facilities": "Q8600",
    "child day care services": "Q8710",
    "computer related services, nec": "M7000",
    "radio and television broadcasting": "J5600",
    "television broadcasting stations": "J5620",
    "farm supplies": "F3310",
    "sand & gravel supplier": "B0911",
    "equipment rental and leasing": "L6600",
    "investment advice": "K6419",
    "technical and trade schools": "P8101",
    "^residential care$": "Q8600",
    "social advocacy organizations": "S9559",
    "^educational services$": "P0000",
    "mining company": "B0000",
    "engineering consultant": "M6923",
    "^secondary school$": "P8022",
    "^metal fabricator$": "C2200",
    "dental clinic": "Q8531",
    "lingerie store": "G4251",
    "jewelry store": "G4253",
    "^synagogue$": "S9540",
    "petrol Station": "G4000",
    "roofing contractor": "E3223",
    "solar energy company": "G4229",
    "sporting goods store": "G4241",
    "crane rental agency": "E3292",
    "air conditioning contractor": "E3233",
    "t(i|y)re shop": "G3922",
    "water utility company": "D2811",
    "^brewery$": "C1212",
    "^social club$": "S9559",
    "concrete contractor": "E3221",
    "after school program": "Q8710",
    "demolition contractor": "E3212"
  },
  "_search-title": {
    "real estate": "L6720",
    "talent acquisition advis(o|e)r": "M6962",
    "\\brestaurant\\b": "H4511",
    "landscape architecture": "M6921"
  }
}